%YAML 1.1
%TAG !u! tag:unity3d.com,2011:
--- !u!114 &11400000
MonoBehaviour:
  m_ObjectHideFlags: 0
  m_CorrespondingSourceObject: {fileID: 0}
  m_PrefabInstance: {fileID: 0}
  m_PrefabAsset: {fileID: 0}
  m_GameObject: {fileID: 0}
  m_Enabled: 1
  m_EditorHideFlags: 0
  m_Script: {fileID: 11500000, guid: d69b49eceaaf46fca75f1c717a81d497, type: 3}
  m_Name: BasicAttack
  m_EditorClassIdentifier: 
  BumperID: EBATK001
  _sprite: {fileID: 21300000, guid: 5da8bde36eb92d647ae01a78879ac870, type: 3}
  bumperName: 
  baseStat:
    hitToBreak: 3
    damagePerAttack: 5
    tickPerAttack: 50
  upgradeStat:
    hitToBreak: 0
    damagePerAttack: 0
    tickPerAttack: 0
