%YAML 1.1
%TAG !u! tag:unity3d.com,2011:
--- !u!114 &11400000
MonoBehaviour:
  m_ObjectHideFlags: 0
  m_CorrespondingSourceObject: {fileID: 0}
  m_PrefabInstance: {fileID: 0}
  m_PrefabAsset: {fileID: 0}
  m_GameObject: {fileID: 0}
  m_Enabled: 1
  m_EditorHideFlags: 0
  m_Script: {fileID: 11500000, guid: 9acc89290c9b38d44912acaacfae7bf8, type: 3}
  m_Name: Shield Bumper
  m_EditorClassIdentifier: 
  BumperID: ARMOR1
  _sprite: {fileID: 21300000, guid: 7835c18b9edfab543985ec3c6e7a5536, type: 3}
  bumperName: Shield Bumper
  baseStat:
    armorAmount: 10
  upgradeStat:
    armorAmount: 15
